0.1 0.266431
0.3 0.166695
0.5 0.161742
0.7 0.160275
0.9 0.160287
1.1 0.160728
1.3 0.161548
1.5 0.162802
1.7 0.164059
1.9 0.16507
2.1 0.16683
2.3 0.167975
2.5 0.169519
2.7 0.171282
2.9 0.172452
3.1 0.173935
3.3 0.175954
3.5 0.177509
3.7 0.179406
3.9 0.181017
4.1 0.183156
4.3 0.184647
4.5 0.18647
4.7 0.188398
4.9 0.190675
5.1 0.192788
5.3 0.194246
5.5 0.196875
5.7 0.198873
5.9 0.201493
6.1 0.203878
6.3 0.206207
6.5 0.208556
6.7 0.210992
6.9 0.213356
7.1 0.215864
7.3 0.218915
7.5 0.221316
7.7 0.224678
7.9 0.22755
8.1 0.23068
8.3 0.233433
8.5 0.236474
8.7 0.240034
8.9 0.243917
9.1 0.247018
9.3 0.250462
9.5 0.25433
9.7 0.258208
9.9 0.26276
10.1 0.266333
10.3 0.271242
10.5 0.275048
10.7 0.279434
10.9 0.285332
11.1 0.2895
11.3 0.294853
11.5 0.300696
11.7 0.305739
11.9 0.312125
12.1 0.317871
12.3 0.325246
12.5 0.330805
12.7 0.337151
12.9 0.346192
13.1 0.35358
13.3 0.362636
13.5 0.371763
13.7 0.380733
13.9 0.391794
14.1 0.401836
14.3 0.412542
14.5 0.425327
14.7 0.437764
14.9 0.450608
15.1 0.466253
15.3 0.483895
15.5 0.499749
15.7 0.520767
15.9 0.541517
16.1 0.563799
16.3 0.588887
16.5 0.619083
16.7 0.650596
16.9 0.688511
17.1 0.729795
17.3 0.779032
17.5 0.842649
17.7 0.912345
17.9 1
18.1 1.1141
18.3 1.25781
18.5 1.48173
18.7 1.82717
18.9 2.46878
19.1 3.90247
19.3 8.21953
19.5 18.6828
19.7 38.8388
19.9 76.7232
